{
  "userId": 0,
  "name": "string",
  "lastName": "string",
  "fullName": "string",
  "locale": "string",
  "token": "string",
  "company": "string",
  "expires": "2018-03-18T15:43:44.555Z",
  "specialAccesses": [
    "ConfiguratorAccess"
  ],
  "documentTypeAccesses": [
    {
      "documentTypeHandle": 0,
      "documentTypeName": "string",
      "permissions": [
        "string"
      ]
    }
  ],
  "email": "string",
  "licensedResources": [
    "None"
  ],
  "firstName": "string"
}