{
  "contexts": [
    {
      "data": [
        {
          "keywords": {},
          "records": [
            {
              "id": "string",
              "keywords": {}
            }
          ]
        }
      ],
      "templatesHandleList": [
        0
      ]
    }
  ],
  "templatesHandleList": [
    0
  ],
  "version": "SpecifiedVersion",
  "preview": true,
  "resultType": "Token"
}