{
  "arguments": [
    {
      "isNegative": true,
      "source": "string",
      "operator": "GreaterThan",
      "target": "string",
      "targetFixedValue": "string",
      "summaryFunction": "string"
    }
  ],
  "isSqlSearch": true
}
